<?xml version="1.0" encoding="UTF-8" standalone="no"?>
<svg
   data-name="Layer 1"
   viewBox="0 0 1080 1080"
   x="0px"
   y="0px"
   version="1.1"
   id="svg5"
   sodipodi:docname="icon.svg"
   width="1080"
   height="1080"
   inkscape:version="1.3 (0e150ed6c4, 2023-07-21)"
   xmlns:inkscape="http://www.inkscape.org/namespaces/inkscape"
   xmlns:sodipodi="http://sodipodi.sourceforge.net/DTD/sodipodi-0.dtd"
   xmlns="http://www.w3.org/2000/svg"
   xmlns:svg="http://www.w3.org/2000/svg"
   xmlns:rdf="http://www.w3.org/1999/02/22-rdf-syntax-ns#"
   xmlns:cc="http://creativecommons.org/ns#"
   xmlns:dc="http://purl.org/dc/elements/1.1/">
  <defs
     id="defs5" />
  <sodipodi:namedview
     id="namedview5"
     pagecolor="#ffffff"
     bordercolor="#000000"
     borderopacity="0.25"
     inkscape:showpageshadow="false"
     inkscape:pageopacity="0.0"
     inkscape:pagecheckerboard="0"
     inkscape:deskcolor="#d1d1d1"
     inkscape:zoom="0.28210614"
     inkscape:cx="191.41731"
     inkscape:cy="552.98335"
     inkscape:window-width="1838"
     inkscape:window-height="1032"
     inkscape:window-x="82"
     inkscape:window-y="0"
     inkscape:window-maximized="1"
     inkscape:current-layer="svg5" />
  <title
     id="title1">tool2-fill</title>
  <path
     d="M 216.64742,78.068731 A 768.25001,768.25001 0 0 0 78.067944,90.483143 V 884.7168 L 417.29897,105.20721 A 766.22906,766.22906 0 0 0 216.64742,78.068731 Z"
     id="path1"
     style="stroke-width:28.8708;fill:#2a7fff" />
  <path
     d="M 476.77266,122.81835 140.14,896.2651 749.31231,287.09278 A 780.95314,780.95314 0 0 0 476.77266,122.81835 Z"
     id="path2"
     style="stroke-width:28.8708;fill:#2ca02c" />
  <path
     d="M 792.90711,330.68758 173.63005,949.96465 968.44112,636.71727 A 782.39667,782.39667 0 0 0 792.90711,330.68758 Z"
     id="path3"
     style="stroke-width:28.8708;fill:#d4aa00" />
  <path
     d="M 984.03131,696.76838 210.00715,1001.932 h 779.5096 A 768.25001,768.25001 0 0 0 1001.9311,863.35247 772.86932,772.86932 0 0 0 984.03131,696.76838 Z"
     id="path4"
     style="stroke-width:28.8708;fill:#aa0000" />
  <metadata
     id="metadata5">
    <rdf:RDF>
      <cc:Work
         rdf:about="">
        <dc:title>tool2-fill</dc:title>
      </cc:Work>
    </rdf:RDF>
  </metadata>
</svg>
